00000000 .text
00000960 .rodata
000009f4 .data
00000a08 .bss
00000000 .comment
00000000 .debug_aranges
00000000 .debug_pubnames
00000000 .debug_info
00000000 .debug_abbrev
00000000 .debug_line
00000000 .debug_frame
00000000 .debug_str
00000000 .debug_loc
00000000 .debug_pubtypes
00000000 cp.c
00000000 ulib.c
000001b8 stosb
00000000 printf.c
000004bc putc
000004e4 printint
000009f4 digits.911
00000000 umalloc.c
00000a08 base
00000a10 freep
00000827 morecore
000001dd strcpy
00000598 printf
000003d6 memmove
00000464 mknod
000002cd gets
0000049c getpid
0000087f malloc
000004ac sleep
0000042c pipe
0000043c write
00000474 fstat
0000044c kill
0000048c chdir
00000454 exec
00000424 wait
00000434 read
0000046c unlink
00000414 fork
000004a4 sbrk
000004b4 uptime
00000a08 __bss_start
00000276 memset
00000000 main
00000210 strcmp
00000494 dup
0000033c stat
00000a08 _edata
00000a14 _end
0000047c link
0000041c exit
0000038a atoi
00000251 strlen
0000045c open
0000029a strchr
00000484 mkdir
00000444 close
00000750 free
