00000000 .text
00000b04 .rodata
00000b44 .data
00000b60 .bss
00000000 .comment
00000000 .debug_aranges
00000000 .debug_pubnames
00000000 .debug_info
00000000 .debug_abbrev
00000000 .debug_line
00000000 .debug_frame
00000000 .debug_str
00000000 .debug_loc
00000000 .debug_pubtypes
00000000 grep.c
00000000 ulib.c
0000035c stosb
00000000 printf.c
00000660 putc
00000688 printint
00000b44 digits.911
00000000 umalloc.c
00000b60 base
00000b68 freep
000009cb morecore
00000381 strcpy
0000073c printf
0000057a memmove
00000252 matchhere
00000608 mknod
00000471 gets
00000640 getpid
00000000 grep
00000a23 malloc
00000650 sleep
000005d0 pipe
000005e0 write
00000618 fstat
000005f0 kill
00000630 chdir
000005f8 exec
000005c8 wait
000005d8 read
00000610 unlink
000005b8 fork
00000648 sbrk
00000658 uptime
00000b58 __bss_start
0000041a memset
00000114 main
00000309 matchstar
000003b4 strcmp
00000638 dup
00000b80 buf
000004e0 stat
00000b58 _edata
00000f80 _end
000001f4 match
00000620 link
000005c0 exit
0000052e atoi
000003f5 strlen
00000600 open
0000043e strchr
00000628 mkdir
000005e8 close
000008f4 free
