00000000 .text
000008f8 .rodata
00000958 .data
0000096c .bss
00000000 .comment
00000000 .debug_aranges
00000000 .debug_pubnames
00000000 .debug_info
00000000 .debug_abbrev
00000000 .debug_line
00000000 .debug_frame
00000000 .debug_str
00000000 .debug_loc
00000000 .debug_pubtypes
00000000 head.c
00000000 ulib.c
00000150 stosb
00000000 printf.c
00000454 putc
0000047c printint
00000958 digits.911
00000000 umalloc.c
0000096c base
00000974 freep
000007bf morecore
00000175 strcpy
00000530 printf
0000036e memmove
000003fc mknod
00000265 gets
00000434 getpid
00000817 malloc
00000444 sleep
000003c4 pipe
000003d4 write
0000040c fstat
000003e4 kill
00000424 chdir
000003ec exec
000003bc wait
000003cc read
00000404 unlink
000003ac fork
0000043c sbrk
0000044c uptime
0000096c __bss_start
0000020e memset
00000000 main
000001a8 strcmp
0000042c dup
00000978 buf
000002d4 stat
0000096c _edata
0000097c _end
00000414 link
000003b4 exit
00000322 atoi
000001e9 strlen
000003f4 open
00000232 strchr
0000041c mkdir
000003dc close
000006e8 free
