00000000 .text
0000082b .rodata
00000868 .data
0000087c .bss
00000000 .comment
00000000 .debug_aranges
00000000 .debug_pubnames
00000000 .debug_info
00000000 .debug_abbrev
00000000 .debug_line
00000000 .debug_frame
00000000 .debug_str
00000000 .debug_loc
00000000 .debug_pubtypes
00000000 mkdir.c
00000000 ulib.c
00000084 stosb
00000000 printf.c
00000388 putc
000003b0 printint
00000868 digits.911
00000000 umalloc.c
0000087c base
00000884 freep
000006f3 morecore
000000a9 strcpy
00000464 printf
000002a2 memmove
00000330 mknod
00000199 gets
00000368 getpid
0000074b malloc
00000378 sleep
000002f8 pipe
00000308 write
00000340 fstat
00000318 kill
00000358 chdir
00000320 exec
000002f0 wait
00000300 read
00000338 unlink
000002e0 fork
00000370 sbrk
00000380 uptime
0000087c __bss_start
00000142 memset
00000000 main
000000dc strcmp
00000360 dup
00000208 stat
0000087c _edata
00000888 _end
00000348 link
000002e8 exit
00000256 atoi
0000011d strlen
00000328 open
00000166 strchr
00000350 mkdir
00000310 close
0000061c free
