00000000 .text
000009ac .rodata
00000a64 .data
00000a78 .bss
00000000 .comment
00000000 .debug_aranges
00000000 .debug_pubnames
00000000 .debug_info
00000000 .debug_abbrev
00000000 .debug_line
00000000 .debug_frame
00000000 .debug_str
00000000 .debug_loc
00000000 .debug_pubtypes
00000000 mv.c
00000000 ulib.c
00000204 stosb
00000000 printf.c
00000508 putc
00000530 printint
00000a64 digits.911
00000000 umalloc.c
00000a78 base
00000a80 freep
00000873 morecore
00000229 strcpy
000005e4 printf
00000422 memmove
000004b0 mknod
00000319 gets
000004e8 getpid
000008cb malloc
000004f8 sleep
00000478 pipe
00000488 write
000004c0 fstat
00000498 kill
000004d8 chdir
000004a0 exec
00000470 wait
00000480 read
000004b8 unlink
00000460 fork
000004f0 sbrk
00000500 uptime
00000a78 __bss_start
000002c2 memset
00000000 main
0000025c strcmp
000004e0 dup
00000388 stat
00000a78 _edata
00000a84 _end
000004c8 link
00000468 exit
000003d6 atoi
0000029d strlen
000004a8 open
000002e6 strchr
000004d0 mkdir
00000490 close
0000079c free
